Type,British Columbia,Alberta,Saskatchewan,Manitoba,Ontario,Quebec,New Brunswick,Prince Edward Island,Nova Scotia,Newfoundland and Labrador
biomass,0.96,0.96,0.96,0.96,0.92,0.96,0.96,0.96,0.96,0.52
coal_pre2025,0.9,0.9,0.9,0.9,0.9,0.9,0.9,0.9,0.9,0.9
coal_ccs_pre2025,0.9,0.9,0.9,0.9,0.9,0.9,0.9,0.9,0.9,0.9
coal_retire_pre2025,0,0,0,0,0,0,0,0,0,0
diesel_pre2025,0.73,0.73,0.73,0.73,0.85,0.73,0.73,0.73,0.73,1
diesel_bio_pre2025,0.73,0.73,0.73,0.73,0.85,0.73,0.73,0.73,0.73,1
diesel_backup_pre2025,0.73,0.73,0.73,0.73,0.85,0.73,0.73,0.73,0.73,1
diesel_retire_pre2025,0,0,0,0,0,0,0,0,0,0
diesel_bio_post2025,0.73,0.73,0.73,0.73,0.85,0.73,0.73,0.73,0.73,1
diesel_backup_post2025,0.73,0.73,0.73,0.73,0.85,0.73,0.73,0.73,0.73,1
hydro_daily,0.7,0.7,0.7,0.7,0.74,0.7,0.7,0.7,0.95,0.75
hydro_monthly,1,1,1,1,1,1,1,1,1,0.98
hydro_run,0.15,0.15,0.15,0.15,0.74,0.15,0.15,0.15,0.15,0.15
h2blue_CT,1,1,1,1,1,1,1,1,1,1
h2green_CT,1,1,1,1,1,1,1,1,1,1
gasSC_pre2025,1,1,1,1,1,1,1,1,1,1
gasSC_ccs_pre2025,1,1,1,1,1,1,1,1,1,1
gasSC_rng_pre2025,1,1,1,1,1,1,1,1,1,1
gasSC_backup_pre2025,1,1,1,1,1,1,1,1,1,1
gasSC_retire_pre2025,0,0,0,0,0,0,0,0,0,0
gasSC_rng_post2025,1,1,1,1,1,1,1,1,1,1
gasSC_backup_post2025,1,1,1,1,1,1,1,1,1,1
gasCCS_post2025,0.9,0.9,0.9,0.9,0.9,0.9,0.9,0.9,0.9,0.9
gasCC_pre2025,0.9,0.9,0.9,0.9,0.9,0.9,0.9,0.9,0.9,0.9
gasCC_ccs_pre2025,0.9,0.9,0.9,0.9,0.9,0.9,0.9,0.9,0.9,0.9
gasCC_rng_pre2025,0.9,0.9,0.9,0.9,0.9,0.9,0.9,0.9,0.9,0.9
gasCC_backup_pre2025,0.9,0.9,0.9,0.9,0.9,0.9,0.9,0.9,0.9,0.9
gasCC_retire_pre2025,0,0,0,0,0,0,0,0,0,0
gasCC_rng_post2025,0.9,0.9,0.9,0.9,0.9,0.9,0.9,0.9,0.9,0.9
gasCC_backup_post2025,0.9,0.9,0.9,0.9,0.9,0.9,0.9,0.9,0.9,0.9
gasCC_free_post2025,0.9,0.9,0.9,0.9,0.9,0.9,0.9,0.9,0.9,0.9
gasCG_free_pre2025,0.333,0.333,0.333,0.333,0.333,0.333,0.333,0.333,0.333,0.333
gasCG_free_retire_pre2025,0,0,0,0,0,0,0,0,0,0
gasCG_restricted_pre2025,0.333,0.333,0.333,0.333,0.333,0.333,0.333,0.333,0.333,0.333
gasCG_restricted_ccs_pre2025,0.333,0.333,0.333,0.333,0.333,0.333,0.333,0.333,0.333,0.333
gasCG_restricted_rng_pre2025,0.333,0.333,0.333,0.333,0.333,0.333,0.333,0.333,0.333,0.333
gasCG_restricted_backup_pre2025,0.333,0.333,0.333,0.333,0.333,0.333,0.333,0.333,0.333,0.333
gasCG_restricted_retire_pre2025,0,0,0,0,0,0,0,0,0,0
nuclear,0.95,0.95,0.95,0.95,0.95,0.95,0.95,0.95,0.95,0.95
nuclear_SMR,0.95,0.95,0.95,0.95,0.95,0.95,0.95,0.95,0.95,0.95
solar,0,0.1,0.18,0.18,0.19,0,0,0,0,0
storage_LI,0.8,0.8,0.8,0.8,0.8,0.8,0.8,0.8,0.8,0.8
storage_PH,0.5,0.5,0.5,0.5,0.5,0.5,0.5,0.5,0.5,0.5
wind_ons,0.24,0.16,0.18,0.18,0.26,0.35,0.19,0.2,0.18,0.22
wind_ofs,0.24,0.16,0.18,0.18,0.26,0.35,0.19,0.2,0.18,0.22
