ABA,2025,2030,2035,2040,2045,2050,2055,2060
Alberta.a.British Columbia.a,800,800,800,800,800,800,800,800
Alberta.a.Saskatchewan.a,153,153,153,153,153,153,153,153
British Columbia.a.Alberta.a,1000,1000,1000,1000,1000,1000,1000,1000
Manitoba.a.Saskatchewan.a,85,85,85,400,400,400,400,400
Manitoba.a.Ontario.b,125,125,125,125,125,125,125,125
New Brunswick.a.Quebec.a,785,785,785,785,785,785,785,785
New Brunswick.a.Prince Edward Island.a,192,192,192,222,222,222,222,222
New Brunswick.a.Nova Scotia.a,300,300,300,300,300,300,300,300
Newfoundland and Labrador.a.Nova Scotia.a,330,330,330,330,330,330,500,500
Newfoundland and Labrador.a.Newfoundland and Labrador.b,900,900,900,900,900,900,900,900
Newfoundland and Labrador.b.Quebec.b,297,297,297,297,5200,5200,5200,5200
Newfoundland and Labrador.b.Newfoundland and Labrador.a,900,900,900,900,900,900,900,900
Nova Scotia.a.New Brunswick.a,350,350,350,350,350,350,350,350
Nova Scotia.a.Newfoundland and Labrador.a,500,500,500,500,500,500,500,500
Ontario.a.Ontario.b,1500,1500,1500,1500,1500,1500,1500,1500
Ontario.a.Quebec.a,2040,2040,2040,2040,2040,2040,2040,2040
Ontario.b.Manitoba.a,25,25,25,25,25,25,25,25
Ontario.b.Ontario.a,2100,2100,2100,2100,2100,2100,2100,2100
Ontario.b.Quebec.b,95,95,95,95,95,95,95,95
Prince Edward Island.a.New Brunswick.a,222,222,222,222,222,222,222,222
Quebec.a.Ontario.a,2520,2665,2665,2665,2665,2665,2665,2665
Quebec.a.Quebec.b,29750,29750,29750,29750,29750,29750,29750,29750
Quebec.a.New Brunswick.a,1029,1029,1029,1029,1029,1029,1029,1029
Quebec.b.Ontario.b,65,65,65,65,65,65,65,65
Quebec.b.Quebec.a,29750,29750,29750,29750,29750,29750,29750,29750
Quebec.b.Newfoundland and Labrador.b,5200,5200,5200,5200,5200,5200,5200,5200
Saskatchewan.a.Alberta.a,153,153,153,153,153,153,153,153
Saskatchewan.a.Manitoba.a,145,145,145,145,145,145,145,145