ABA,2025,2030,2035,2040,2045,2050,2055,2060
Alberta.a.storage_LI,70,70,70,70,0,0,0,0
Alberta.a.storage_PH,0,0,0,0,0,0,0,0
British Columbia.a.storage_LI,0,0,0,0,0,0,0,0
British Columbia.a.storage_PH,0,0,0,0,0,0,0,0
Manitoba.a.storage_LI,0,0,0,0,0,0,0,0
Manitoba.a.storage_PH,0,0,0,0,0,0,0,0
New Brunswick.a.storage_LI,0,0,0,0,0,0,0,0
New Brunswick.a.storage_PH,0,0,0,0,0,0,0,0
Newfoundland and Labrador.a.storage_LI,0,0,0,0,0,0,0,0
Newfoundland and Labrador.a.storage_PH,0,0,0,0,0,0,0,0
Newfoundland and Labrador.b.storage_LI,0,0,0,0,0,0,0,0
Newfoundland and Labrador.b.storage_PH,0,0,0,0,0,0,0,0
Nova Scotia.a.storage_LI,0,0,0,0,0,0,0,0
Nova Scotia.a.storage_PH,0,0,0,0,0,0,0,0
Ontario.a.storage_LI,272.55,272.55,272.55,250,0,0,0,0
Ontario.a.storage_PH,174,174,174,174,174,174,174,174
Ontario.b.storage_LI,13,13,13,0,0,0,0,0
Ontario.b.storage_PH,0,0,0,0,0,0,0,0
Prince Edward Island.a.storage_LI,11,11,11,11,0,0,0,0
Prince Edward Island.a.storage_PH,0,0,0,0,0,0,0,0
Quebec.a.storage_LI,0,0,0,0,0,0,0,0
Quebec.a.storage_PH,0,0,0,0,0,0,0,0
Quebec.b.storage_LI,0,0,0,0,0,0,0,0
Quebec.b.storage_PH,0,0,0,0,0,0,0,0
Saskatchewan.a.storage_LI,20,20,20,20,0,0,0,0
Saskatchewan.a.storage_PH,0,0,0,0,0,0,0,0