﻿Type,Is thermal?,non-emitting thermal?,min_cap_fact,max_cap_fact,efficiency,fuel_co2,fixed_o_m,variable_o_m,fuelprice,capitalcost,ramp_rate_percent
biomass,TRUE,TRUE,0.6,0.65,0.25,0,171106,6.58,2.87,577636.65,1
coal_pre2025,TRUE,FALSE,0.4,0.6,0.4,0.81,55237,6.12,2.37,521009.56,1
coal_ccs_pre2025,TRUE,FALSE,0.4,0.6,0.32,0.1,81042,14.94,2.37,824301.73,1
coal_fuelblending_pre2025,TRUE,FALSE,0.4,0.6,0.32,0.1,81042,14.94,2.37,824301.73,1
coal_backup_pre2025,TRUE,FALSE,0.4,0.6,0.4,0.81,55237,6.12,2.37,521009.56,1
coal_retire_pre2025,TRUE,FALSE,0.4,0.6,0.4,0.81,55237,6.12,2.37,10000,1
diesel_pre2025,TRUE,FALSE,0.01,0.02,0.41,0.52,47853,7.75,11.27,249165.69,1
diesel_bio_pre2025,TRUE,FALSE,0.01,0.02,0.41,0.52,47853,7.75,11.27,249165.69,1
diesel_backup_pre2025,TRUE,FALSE,0.01,0.02,0.41,0.52,47853,7.75,11.27,249165.69,1
diesel_retire_pre2025,TRUE,FALSE,0.01,0.02,0.41,0.52,47853,7.75,11.27,10000,1
diesel_bio_post2025,TRUE,FALSE,0.01,0.02,0.41,0.52,47853,7.75,11.27,249165.69,1
diesel_backup_post2025,TRUE,FALSE,0.01,0.02,0.41,0.52,47853,7.75,11.27,249165.69,1
hydro_daily,FALSE,FALSE,,,,0,115195.75,5,0,368867.17,1
hydro_monthly,FALSE,FALSE,,,,0,16009.37,2,0,823801.84,1
hydro_run,FALSE,FALSE,,,,0,55654.5,1,0,300353.95,1
h2blue_CT,TRUE,FALSE,0.08,0.15,0.34,0.03,58000,4.69,15.6,154738.6,1
h2green_CT,TRUE,TRUE,0.08,0.15,0.34,0,58000,4.69,56.4,154738.6,1
gasSC_pre2025,TRUE,FALSE,0.08,0.15,0.35,0.52,22178,6.4,2.94,161455.24,1
gasSC_ccs_pre2025,TRUE,FALSE,0.45,0.58,0.48,0.038,37557,7.94,2.94,357371.46,1
gasSC_rng_pre2025,TRUE,FALSE,0.45,0.58,0.48,0.038,37557,7.94,2.94,357371.46,1
gasSC_backup_pre2025,TRUE,FALSE,0.08,0.15,0.35,0.52,22178,6.4,2.94,161455.24,1
gasSC_retire_pre2025,TRUE,FALSE,0.08,0.15,0.35,0.52,22178,6.4,2.94,10000,1
gasSC_rng_post2025,TRUE,FALSE,0.45,0.58,0.48,0.038,37557,7.94,2.94,357371.46,1
gasSC_backup_post2025,TRUE,FALSE,0.08,0.15,0.35,0.52,22178,6.4,2.94,161455.24,1
gasCCS_post2025,TRUE,FALSE,0.45,0.58,0.48,0.038,37557,7.94,2.94,357371.46,1
gasCC_pre2025,TRUE,FALSE,0.45,0.58,0.54,0.34,16601,2.55,2.94,136455,1
gasCC_ccs_pre2025,TRUE,FALSE,0.45,0.58,0.48,0.038,37557,7.94,2.94,357371.46,1
gasCC_rng_pre2025,TRUE,FALSE,0.45,0.58,0.48,0.038,37557,7.94,2.94,357371.46,1
gasCC_backup_pre2025,TRUE,FALSE,0.45,0.58,0.54,0.34,16601,2.55,2.94,136455,1
gasCC_retire_pre2025,TRUE,FALSE,0.45,0.58,0.54,0.34,16601,2.55,2.94,10000,1
gasCC_rng_post2025,TRUE,FALSE,0.45,0.58,0.48,0.038,37557,7.94,2.94,357371.46,1
gasCC_backup_post2025,TRUE,FALSE,0.45,0.58,0.54,0.34,16601,2.55,2.94,136455,1
nuclear,TRUE,FALSE,0.86,0.94,0.33,0,165555,3.22,0.81,936848.44,1
nuclear_SMR,TRUE,TRUE,0.86,0.94,0.33,0,129298,4.08,0.81,1004712.81,1
solar,FALSE,TRUE,,,,0,20761,0,0,165468.18,1
storage_LI,FALSE,FALSE,0,0.17,,0,33748,0,0,218300.6,1
storage_PH,FALSE,FALSE,0,0.3,,0,14040,1,0,189619.43,1
wind_ons,FALSE,FALSE,,,,0,35841,0,0,218137.37,1
wind_ofs,FALSE,FALSE,,,,0,149708,0,0,767539.67,1
