﻿Project Name,Short Name,Balancing Area,Connecting Voltage (kV),Distance to Grid (km),Generation Type - COPPER,Additional Capacity (MW),Minimum Generation,Annualized Capital Cost ($M/year),Fixed O&M ($/MW-year),Variable O&M ($/MWh),Development Time (years)
Alouette Redevelopment,BC_ALU02_REN,British Columbia.a,230,0,hydro_daily,21,0.1,676,0,7.75,9
Duncan Dam New Generation,BC_DUN00_REN,British Columbia.a,138,100,hydro_daily,30,0.1,516,0,7.75,9
Falls River Redevelopment,BC_FSR03_REN,British Columbia.a,69,0,hydro_daily,24,0.1,586,132558,7.75,9
GMS Units 1-5 Capacity Increase,BC_GMS15_REN,British Columbia.a,500,0,hydro_monthly,175,0.1,76,0,7.75,8
Revelstoke 6,BC_REV06_REN,British Columbia.a,500,0,hydro_monthly,500,0.1,101,970,7.75,7
Seton Unit Upgrade,BC_SET02_REN,British Columbia.a,69,0,hydro_daily,6,0.1,1245,74391,7.75,3
Seven Mile Turbine Upgrades,BC_SEV05_REN,British Columbia.a,230,0,hydro_daily,106.5,0.1,142,7507,7.75,7
Wahleach Additional Units,BC_WAH02_REN,British Columbia.a,69,0,hydro_daily,14,0.1,44,4672,7.75,9
Brazeau Capacity Addition,AB_BRA03_REN,Alberta.a,240,50,hydro_daily,170,0.1,260,21735,1,7
Sainte-Margeurite-3 Unit 3,QC_SM303_REN,Quebec.b,315,0,hydro_monthly,440,0.1,142,7276,5.23,7
Grand Falls_05,NB_GFL05_REN,New Brunswick.a,138,0,hydro_daily,100,0.1,407,43467,1,5
Bay Despoir_08,NL_BDE08_REN,Newfoundland and Labrador.a,230,25,hydro_monthly,154,0.1,298,11976,5.24,7
Cat Arm_03,NL_CAM03_REN,Newfoundland and Labrador.a,230,150,hydro_daily,68.2,0.1,863,32059,8.24,7
Amisk Hydro Development,AB_AMK00_GRF,Alberta.a,240,100,hydro_daily,370,0.1,244,53863,5,13
Slave River Hydro Development,AB_SRD00_GRF,Alberta.a,500,350,hydro_daily,1100,0.1,755,34835,5,15
Run of River 7043,BC_R7043_GRF,British Columbia.a,138,125,hydro_run,73.4,0.1,12,32210,7.75,8
Run of River 5101,BC_R5101_GRF,British Columbia.a,138,50,hydro_run,27.1,0.1,4,31838,7.75,6
Run of River 4922,BC_R4922_GRF,British Columbia.a,69,25,hydro_run,74.7,0.1,14,36644,7.75,8
Run of River 4951,BC_R4951_GRF,British Columbia.a,230,25,hydro_run,71.8,0.1,15,42640,7.75,8
Run of River 5009,BC_R5009_GRF,British Columbia.a,230,75,hydro_run,64.6,0.1,14,44055,7.75,8
Run of River 5375,BC_R5375_GRF,British Columbia.a,69,25,hydro_run,40.9,0.1,10,47391,7.75,6
Run of River 5332,BC_R5332_GRF,British Columbia.a,69,25,hydro_run,49.3,0.1,12,48018,7.75,5
Run of River 5018,BC_R5018_GRF,British Columbia.a,230,25,hydro_run,15.8,0.1,4,47938,7.75,6
Run of River 6514,BC_R6514_GRF,British Columbia.a,138,25,hydro_run,17.5,0.1,5,54624,7.75,6
Run of River 5145,BC_R5145_GRF,British Columbia.a,69,50,hydro_run,16,0.1,6,68931,7.75,6
Site E,BC_STE00_GRF,British Columbia.a,500,50,hydro_monthly,675,0.1,303,26256,8.75,14
Nahatlatch River,BC_NHR00_GRF,British Columbia.a,69,50,hydro_daily,83.9,0.1,40,104811,11.75,6
South Creek,BC_SOC00_GRF,British Columbia.a,230,25,hydro_daily,45.1,0.1,24,113754,11.75,6
Spuzzum Creek,BC_SPC00_GRF,British Columbia.a,69,25,hydro_daily,40.4,0.1,22,113992,11.75,6
Freda Creek,BC_FRC00_GRF,British Columbia.a,230,50,hydro_daily,40.1,0.1,22,118123,11.75,6
Chemainus River,BC_CHR00_GRF,British Columbia.a,138,25,hydro_daily,40.1,0.1,22,118255,11.75,6
Zymoetz River,BC_ZYR00_GRF,British Columbia.a,69,25,hydro_daily,51.2,0.1,32,136501,11.75,6
Nimpkish River B,BC_NKR00_GRF,British Columbia.a,138,25,hydro_daily,77.6,0.1,50,141065,11.75,6
Elaho River B,BC_ELB00_GRF,British Columbia.a,138,75,hydro_daily,63.9,0.1,41,141399,11.75,6
Silverhope Creek,BC_SHC00_GRF,British Columbia.a,69,50,hydro_daily,51.1,0.1,36,154163,11.75,6
Squamish River B,BC_SQB00_GRF,British Columbia.a,138,75,hydro_daily,67.7,0.1,49,157983,11.75,6
Conawapa,MB_CON00_GRF,Manitoba.a,230,25,hydro_monthly,1485,0.1,623,8901,5.11,13
Gillam Island,MB_GIS00_GRF,Manitoba.a,230,25,hydro_monthly,1080,0.1,793,13778,5.11,19
Notigi,MB_NOT00_GRF,Manitoba.a,138,25,hydro_daily,120,0.1,99,84509,8.11,10
High Narrows,NB_HGN00_GRF,New Brunswick.a,138,25,hydro_run,40,0.1,28,56429,1,6
Red Indian Falls,NL_RIF00_GRF,Newfoundland and Labrador.a,69,75,hydro_run,42,0.1,34,55755,4.44,5
Badger Chute,NL_BDC00_GRF,Newfoundland and Labrador.a,69,25,hydro_run,24,0.1,22,63984,4.44,5
Island Pond,NL_ISP00_GRF,Newfoundland and Labrador.a,230,25,hydro_run,36,0.1,36,57910,4.44,5
Portland Creek,NL_POC00_GRF,Newfoundland and Labrador.a,69,50,hydro_daily,23,0.1,23,163638,8.44,5
Round Pond,NL_ROP00_GRF,Newfoundland and Labrador.a,230,75,hydro_run,18,0.1,22,68677,4.44,5
Gull Island,NL_GIP00_GRF,Newfoundland and Labrador.b,735,800,hydro_monthly,2250,0.1,520,5033,5.44,13
Biglow Peaking,ON_ON05_GRF,Ontario.b,500,275,hydro_daily,480,0.1,244,48538,10.6,13
Blackbear Island Peaking,ON_ON08_GRF,Ontario.b,500,260,hydro_daily,490,0.1,252,48139,10.6,13
Hat Island Peaking,ON_ON20_GRF,Ontario.b,500,250,hydro_daily,490,0.1,253,48139,10.6,13
Biglow Baseload,ON_ON04_GRF,Ontario.b,500,275,hydro_run,225,0.1,123,36895,6.6,13
Hat Island Baseload,ON_ON19_GRF,Ontario.b,500,250,hydro_run,250,0.1,139,35951,6.6,13
Blackbear Island Baseload,ON_ON07_GRF,Ontario.b,500,260,hydro_run,240,0.1,134,36314,6.6,13
Grey Goose,ON_ON18_GRF,Ontario.b,500,125,hydro_daily,140,0.1,78,79455,10.6,13
Grand Rapids,ON_ON17_GRF,Ontario.b,500,75,hydro_daily,174,0.1,99,72838,10.6,13
Stooping Baseload,ON_ON32_GRF,Ontario.b,500,285,hydro_run,130,0.1,77,42226,6.6,13
Thunder House Falls & Chute,ON_ON34_GRF,Ontario.b,115,80,hydro_run,29.2,0.1,19,60971,6.6,11
Long Rapids,ON_ON22_GRF,Ontario.b,115,80,hydro_daily,126,0.1,87,82876,10.6,13
16km Rapids,ON_ON01_GRF,Ontario.b,500,110,hydro_run,23.6,0.1,17,64250,6.6,11
Petit-Mécatina,QC_PMC00_GRF,Quebec.b,315,200,hydro_monthly,1200,0.1,848,11923,6.23,15
Tazi Twe,SK_TAZ00_GRF,Saskatchewan.a,115,25,hydro_daily,50,0.1,51,119946,11.01,6
Burwell - Seymour,BC_BC029_STO,British Columbia.a,230,50,storage_PH,1000,0.1,134,14764,1,8
Diana-16,BC_BC052_STO,British Columbia.a,230,50,storage_PH,500,0.1,107,17161,1,8
Kenyon - Stave,BC_BC110_STO,British Columbia.a,230,50,storage_PH,1000,0.1,130,14280,1,8
Knight - Fourth,BC_BC115_STO,British Columbia.a,230,50,storage_PH,500,0.1,116,19187,1,8
Mica Pumped Storage,BC_MIC00_STO,British Columbia.a,500,25,storage_PH,500,0.1,71,4390,1,6
Quimper - Bulson,BC_BC180_STO,British Columbia.a,230,50,storage_PH,500,0.1,109,17926,1,8
Un-named - Uchuck,BC_BC218_STO,British Columbia.a,230,50,storage_PH,500,0.1,128,21080,1,8
Upper Deserted - Un-named,BC_BC222_STO,British Columbia.a,230,50,storage_PH,1000,0.1,127,13909,1,8
Upper Misery - Lower Misery,BC_BC231_STO,British Columbia.a,230,50,storage_PH,1000,0.1,130,14278,1,8
Upper Vancouver - Lower Vancouver,BC_BC235_STO,British Columbia.a,230,50,storage_PH,1000,0.1,129,14172,1,8
Brazeau  Pumped Storage,AB_BRA00_STO,Alberta.a,240,150,storage_PH,900,0.1,230,21258,1,8
Canyon Creek,AB_CYC00_STO,Alberta.a,138,10,storage_PH,75,0.1,18,54844,1,5
Marmora Pumped Storage,ON_MAR00_STO,Ontario.a,230,25,storage_PH,400,0.1,90,32218,1,9
Ontario Pumped Storage,ON_OPS00_STO,Ontario.a,138,50,storage_PH,1000,0.1,265,19834,1,9
Grand Falls Pumped Storage,NB_GFL00_STO,New Brunswick.a,138,0,storage_PH,100,0.1,56,50956,1,6
