AP,2025,2030,2035,2040,2045,2050,2055,2060
Alberta,477884,477884,477884,477884,477884,477884,477884,477884
British Columbia,688338,688338,688338,688338,688338,688338,688338,688338
Manitoba,411846,411846,411846,411846,411846,411846,411846,411846
New Brunswick,53159,53159,53159,53159,53159,53159,53159,53159
Newfoundland and Labrador,278161,278161,278161,278161,278161,278161,278161,278161
Nova Scotia,39683,39683,39683,39683,39683,39683,39683,39683
Ontario,682799,682799,682799,682799,682799,682799,682799,682799
Prince Edward Island,4211,4211,4211,4211,4211,4211,4211,4211
Quebec,1015655,1015655,1015655,1015655,1015655,1015655,1015655,1015655
Saskatchewan,440202,440202,440202,440202,440202,440202,440202,440202