,2025,2030,2035,2040,2045,2050,2055,2060
biomass.base,0.968309558,0.936956144,0.905601592,0.874248211,0.842894365,0.811539886,0.781893186,0.753329522
coal.base,0.947179141,0.920206788,0.899303214,0.880422567,0.864239155,0.848954821,0.833645261,0.818611785
coalCCS.base,0.901469317,0.817847882,0.736387208,0.676101988,0.646283492,0.616464996,0.588649156,0.562088409
diesel.base,1,1,1,1,1,1,1,1
hydro_annual.base,1,1,1,1,1,1,1,1
hydro_daily.base,1,1,1,1,1,1,1,1
hydro_monthly.base,1,1,1,1,1,1,1,1
hydro_run.base,1,1,1,1,1,1,1,1
gasCC.base,0.906019007,0.878563886,0.858500528,0.840549102,0.822597677,0.806758184,0.790375601,0.774325694
gasCCS.base,0.819508128,0.760733639,0.704877032,0.657774073,0.628595248,0.601500625,0.575195857,0.550041446
gasSC.base,0.887039239,0.846611177,0.822829964,0.800237812,0.77764566,0.762187872,0.74384683,0.725947141
nuclear.base,0.946108697,0.915240438,0.884371284,0.853503152,0.822634515,0.791765376,0.762591912,0.734493375
smr.base,0.968750781,0.937501103,0.906250379,0.875000802,0.843750699,0.812500042,0.782944292,0.754463672
diesel.base,1,1,1,1,1,1,1,1
solar.base,0.736319901,0.563667273,0.538553483,0.513439693,0.488325903,0.463212113,0.439972104,0.417898079
storage.base,0.639158642,0.517991127,0.485874162,0.453499717,0.421125272,0.388750826,0.359930357,0.333246525
storage_pump.base,1,1,1,1,1,1,1,1
wind_ofs.base,0.79443451,0.730244351,0.690564082,0.661766132,0.639148502,0.620521571,0.600873508,0.581847577
wind_ons.base,0.824897401,0.649794802,0.617305062,0.584815321,0.552325581,0.519835841,0.490105931,0.462076303
biomass.advanced,0.968309558,0.936956144,0.905601592,0.874248211,0.842894365,0.811539886,0.781893186,0.753329522
coal.advanced,0.947179141,0.920206788,0.899303214,0.880422567,0.864239155,0.848954821,0.833645261,0.818611785
coalCCS.advanced,0.891313742,0.759723423,0.632454624,0.547104581,0.523120138,0.49891962,0.476442723,0.454978437
diesel.advanced,1,1,1,1,1,1,1,1
hydro_annual.advanced,1,1,1,1,1,1,1,1
hydro_daily.advanced,1,1,1,1,1,1,1,1
hydro_monthly.advanced,1,1,1,1,1,1,1,1
hydro_run.advanced,1,1,1,1,1,1,1,1
gasCC.advanced,0.906019007,0.878563886,0.858500528,0.840549102,0.822597677,0.806758184,0.790375601,0.774325694
gasCCS.advanced,0.736556899,0.659441434,0.58274281,0.52355148,0.50020842,0.478532722,0.457496488,0.437385004
gasSC.advanced,0.887039239,0.846611177,0.822829964,0.800237812,0.77764566,0.762187872,0.74384683,0.725947141
nuclear.advanced,0.946108697,0.915240438,0.884371284,0.853503152,0.822634515,0.791765376,0.762591912,0.734493375
smr.advanced,0.968750781,0.937501103,0.906250379,0.875000802,0.843750699,0.812500042,0.782944292,0.754463672
diesel.advanced,1,1,1,1,1,1,1,1
solar.advanced,0.691673164,0.463212113,0.434727082,0.406242051,0.37775702,0.34927199,0.323856933,0.300291224
storage.advanced,0.581971149,0.393686366,0.369080968,0.34447557,0.319870172,0.295264774,0.273362063,0.253084092
storage_pump.advanced,1,1,1,1,1,1,1,1
wind_ofs.advanced,0.757065914,0.685497602,0.641256399,0.609148352,0.583931003,0.563163053,0.541489071,0.520649237
wind_ons.advanced,0.739398085,0.47879617,0.448871409,0.418946648,0.389021888,0.359097127,0.332459338,0.307797538